Lab 8: Machine Learning The Whole Game Plan
…
[[2]]
Minimal Node Size (quantitative)
Range: [2, 40]

rf_grid <- grid_regular(
  mtry(range = c(1, 5)),
  min_n(range = c(2, 10)),
  levels = 5
)
rf_grid

# A tibble: 25 × 2
    mtry min_n
   <int> <int>
 1     1     2
 2     2     2
 3     3     2
 4     4     2
 5     5     2
 6     1     4
 7     2     4
 8     3     4
 9     4     4
10     5     4
# ℹ 15 more rows
…
[[2]]
Minimal Node Size (quantitative)
Range: [2, 15]

dials <- extract_parameter_set_dials(rf_workflow)

dials <- finalize(dials, camels_train)

my.grid <- grid_space_filling(dials, size = 25)

my.grid

# A tibble: 25 × 2
    mtry min_n
   <int> <int>
 1     1    24
 2     1    13
 3     1    33
 4     1     5
 5     1    19
 6     2    27
 7     2    36
 8     2    11
 9     2     3
10     2    21
# ℹ 15 more rows
…
# Describe what you see !

# This autoplot shows six different graphs in relation to rmse, rsq, and mae metric values in randomly selected predictors and minimal node size. For the minimal node size,, we can see the metrics of mae and rmse follow a similar pattern with no outliers which shows that this model is consistent and a good choice.

Check the skill of the tuned model

# Check using collect_metric () function

model_params %>% collect_metrics()

# A tibble: 75 × 8
    mtry min_n .metric .estimator  mean     n std_err .config              
   <int> <int> <chr>   <chr>      <dbl> <int>   <dbl> <chr>                
 1     1    24 mae     standard   0.326    10  0.0120 Preprocessor1_Model01
 2     1    24 rmse    standard   0.494    10  0.0246 Preprocessor1_Model01
 3     1    24 rsq     standard   0.904    10  0.0110 Preprocessor1_Model01
 4     1    13 mae     standard   0.327    10  0.0109 Preprocessor1_Model02
 5     1    13 rmse    standard   0.493    10  0.0234 Preprocessor1_Model02
 6     1    13 rsq     standard   0.904    10  0.0108 Preprocessor1_Model02
 7     1    33 mae     standard   0.335    10  0.0124 Preprocessor1_Model03
 8     1    33 rmse    standard   0.518    10  0.0302 Preprocessor1_Model03
 9     1    33 rsq     standard   0.898    10  0.0127 Preprocessor1_Model03
10     1     5 mae     standard   0.331    10  0.0110 Preprocessor1_Model04
# ℹ 65 more rows
…
# Interpret the Metrics

# The final model performed very well, similarly to how our random forest model performed with the metrics in standard form of rsq, rmse, and mae, which means it performed well with the test data. The results show that there is a final rmse of 0.4 and a rsq of 0.9 meaning that the predicted values are close to the actual values from the lower rmse metric and 80% of variability in test data due to the high rsq which is a strong model choice. The rsq values being similar on both data sets shows a high correlation for both applications of the model. 

# Plot Predictions

final_predictions <- collect_predictions(final_fit)
final_predictions

# A tibble: 102 × 5
   .pred id                .row q_mean .config             
   <dbl> <chr>            <int>  <dbl> <chr>               
 1  2.03 train/test split     1  2.17  Preprocessor1_Model1
 2  1.87 train/test split    15  1.86  Preprocessor1_Model1
 3  2.11 train/test split    17  2.24  Preprocessor1_Model1
 4  2.08 train/test split    19  2.15  Preprocessor1_Model1
 5  1.92 train/test split    28  2.03  Preprocessor1_Model1
 6  1.20 train/test split    37  1.10  Preprocessor1_Model1
 7  1.24 train/test split    38  1.16  Preprocessor1_Model1
 8  1.15 train/test split    44  0.990 Preprocessor1_Model1
 9  1.20 train/test split    46  1.14  Preprocessor1_Model1
10  1.05 train/test split    47  1.00  Preprocessor1_Model1
# ℹ 92 more rows
…
